{
	"mediaTypes": {
		"application/json": {
			"suffixes": [ "json" ]
		}
	},
	"outputFormats": {
		"RSS": {
			"baseName": "feed"
		},
		"JSON": {
			"baseName": "feed"
		},
		"RSD": {
			"mediaType": "application/xml",
			"baseName": "rsd",
			"isPlainText": true,
			"notAlternative": true
		},
		"ArchiveJSON": {
			"mediaType": "application/json",
			"path": "archive",
			"baseName": "index",
			"isPlainText": true,
			"notAlternative": true
		},
		"PhotosJSON": {
			"mediaType": "application/json",
			"path": "photos",
			"baseName": "index",
			"isPlainText": true,
			"notAlternative": true
		},
		"PodcastXML": {
			"mediaType": "application/rss+xml",
			"baseName": "podcast",
			"isPlainText": true,
			"notAlternative": true
		},
		"PodcastJSON": {
			"mediaType": "application/json",
			"baseName": "podcast",
			"isPlainText": true,
			"notAlternative": true
		}
	},
	"outputs": {
		"home": [ "HTML", "RSS", "JSON", "RSD", "ArchiveJSON", "PhotosJSON", "PodcastXML", "PodcastJSON" ],
		"page": [ "HTML" ],
		"section": [ "HTML" ],
		"taxonomy": [ "HTML", "RSS", "JSON" ],
		"taxonomyTerm": [ "HTML", "RSS", "JSON" ]
	},
	"taxonomies": {
		"category": "categories"
	},	
	"rssLimit": 25,
	"uglyURLs": false,
	"blackfriday": {
		"fractions": false
	},
	"enableRobotsTXT": true,
	"languageCode": "[LANGUAGE]",
	"paginate": 10,
	"params": {
		"description": "enter your description here",
		"paginate_home": false,
		"paginate_categories": false,
		"paginate_replies": false,
		"theme_seconds": "0",
		"plugins_css": [],
		"plugins_js": [],
		"plugins_html": []
	}
}
